{
    "Cluster": 
    {
        "LoadAverage": {
            "status": {
                "node-master": "",
                "node-slave": ""
            }
        },
        "Resources": {
            "status": {
                "DrbFS": "",
                "Supervisor": "",
                "vip": ""
            }
        },
        "Roles": {
            "status": {
                "master": "",
                "slave": ""
            }
        },
        "Sensors": {
            "status": {
                "node-master": "",
                "node-slave": ""
            }
        },
        "StatusNode": {
            "status": {
                "node-master": "offline",
                "node-slave": "offine"            }
        },
        "Uptime": {
            "status": {
                "node-master": "",
                "node-slave": ""
            }
        },
        "Online":{
            "status":{
                "node-master":"Host seems down ",
                "node-slave":"Host seems down"
            }
        }
    }
}